-- Merging decision tree log ---
manifest
ADDED from C:\Users\USER\Desktop\flutter\flutter\.pub-cache\hosted\pub.dartlang.org\geolocator_android-1.0.0\android\src\main\AndroidManifest.xml:1:1-3:12
INJECTED from C:\Users\USER\Desktop\flutter\flutter\.pub-cache\hosted\pub.dartlang.org\geolocator_android-1.0.0\android\src\main\AndroidManifest.xml:1:1-3:12
INJECTED from C:\Users\USER\Desktop\flutter\flutter\.pub-cache\hosted\pub.dartlang.org\geolocator_android-1.0.0\android\src\main\AndroidManifest.xml:1:1-3:12
	package
		ADDED from C:\Users\USER\Desktop\flutter\flutter\.pub-cache\hosted\pub.dartlang.org\geolocator_android-1.0.0\android\src\main\AndroidManifest.xml:2:3-36
		INJECTED from C:\Users\USER\Desktop\flutter\flutter\.pub-cache\hosted\pub.dartlang.org\geolocator_android-1.0.0\android\src\main\AndroidManifest.xml
		INJECTED from C:\Users\USER\Desktop\flutter\flutter\.pub-cache\hosted\pub.dartlang.org\geolocator_android-1.0.0\android\src\main\AndroidManifest.xml
	xmlns:android
		ADDED from C:\Users\USER\Desktop\flutter\flutter\.pub-cache\hosted\pub.dartlang.org\geolocator_android-1.0.0\android\src\main\AndroidManifest.xml:1:11-69
uses-sdk
INJECTED from C:\Users\USER\Desktop\flutter\flutter\.pub-cache\hosted\pub.dartlang.org\geolocator_android-1.0.0\android\src\main\AndroidManifest.xml reason: use-sdk injection requested
INJECTED from C:\Users\USER\Desktop\flutter\flutter\.pub-cache\hosted\pub.dartlang.org\geolocator_android-1.0.0\android\src\main\AndroidManifest.xml
INJECTED from C:\Users\USER\Desktop\flutter\flutter\.pub-cache\hosted\pub.dartlang.org\geolocator_android-1.0.0\android\src\main\AndroidManifest.xml
	android:minSdkVersion
		INJECTED from C:\Users\USER\Desktop\flutter\flutter\.pub-cache\hosted\pub.dartlang.org\geolocator_android-1.0.0\android\src\main\AndroidManifest.xml
		ADDED from C:\Users\USER\Desktop\flutter\flutter\.pub-cache\hosted\pub.dartlang.org\geolocator_android-1.0.0\android\src\main\AndroidManifest.xml
		INJECTED from C:\Users\USER\Desktop\flutter\flutter\.pub-cache\hosted\pub.dartlang.org\geolocator_android-1.0.0\android\src\main\AndroidManifest.xml
