{
  "project_info": {
    "project_number": "375962111817",
    "project_id": "infi-mart",
    "storage_bucket": "infi-mart.appspot.com"
  },
  "client": [
    {
      "client_info": {
        "mobilesdk_app_id": "1:375962111817:android:c6f145c3c8dd3987b91498",
        "android_client_info": {
          "package_name": "com.infimart.vendor"
        }
      },
      "oauth_client": [
        {
          "client_id": "375962111817-kchavipsvc37mb85pfq0kapritu64spe.apps.googleusercontent.com",
          "client_type": 3
        }
      ],
      "api_key": [
        {
          "current_key": "AIzaSyDm0gZu3Kl7KLpTNbAbEPEH207ioZYe1vw"
        }
      ],
      "services": {
        "appinvite_service": {
          "other_platform_oauth_client": [
            {
              "client_id": "375962111817-kchavipsvc37mb85pfq0kapritu64spe.apps.googleusercontent.com",
              "client_type": 3
            }
          ]
        }
      }
    }
  ],
  "configuration_version": "1"
}